Column inventories
…
cant_inv_budget %>%
  group_by(data_source, Version_ID) %>%
  summarise(cant_total = sum(cant_total),
            cant_total = round(cant_total,1),
            cant_pos_total = sum(cant_pos_total),
            cant_pos_total = round(cant_pos_total,1),
            cant_total_rate = cant_total / duration,
            cant_pos_total_rate = cant_pos_total / duration) %>%
  ungroup()

# A tibble: 144 x 6
   data_source Version_ID cant_total cant_pos_total cant_total_rate
   <chr>       <chr>           <dbl>          <dbl>           <dbl>
 1 mod         v_101            14.3           16              1.79
 2 mod         v_101            14.3           16              1.79
 3 mod         v_101            14.3           16              1.79
 4 mod         v_102            19.2           20.3            2.4 
 5 mod         v_102            19.2           20.3            2.4 
 6 mod         v_102            19.2           20.3            2.4 
 7 mod         v_103            18.8           20.1            2.35
 8 mod         v_103            18.8           20.1            2.35
 9 mod         v_103            18.8           20.1            2.35
10 mod         v_104            17.2           18              2.15
# … with 134 more rows, and 1 more variable: cant_pos_total_rate <dbl>
…
cant_inv_budget %>%
  group_by(data_source, Version_ID) %>%
  summarise(cant_total = sum(cant_total),
            cant_total = round(cant_total,1),
            cant_pos_total = sum(cant_pos_total),
            cant_pos_total = round(cant_pos_total,1),
            cant_total_rate = cant_total / duration,
            cant_pos_total_rate = cant_pos_total / duration) %>%
  ungroup()

# A tibble: 351 x 6
   data_source Version_ID cant_total cant_pos_total cant_total_rate
   <chr>       <chr>           <dbl>          <dbl>           <dbl>
 1 mod         v_101            14.3           16              1.79
 2 mod         v_101            14.3           16              1.79
 3 mod         v_101            14.3           16              1.79
 4 mod         v_102            19.2           20.3            2.4 
 5 mod         v_102            19.2           20.3            2.4 
 6 mod         v_102            19.2           20.3            2.4 
 7 mod         v_103            18.8           20.1            2.35
 8 mod         v_103            18.8           20.1            2.35
 9 mod         v_103            18.8           20.1            2.35
10 mod         v_104            17.2           18              2.15
# … with 341 more rows, and 1 more variable: cant_pos_total_rate <dbl>
…
