Results publication
…
dcant_inv_all_lat_mean %>%
  filter(period != "1800 - 1994") %>% 
  mutate(lat_grid = cut(lat_grid, c(-40,-30,-10,10,30,40))) %>% 
  group_by(lat_grid, basin_AIP, data_source) %>% 
  summarise(dcant_mean = mean(dcant_mean, na_rm = TRUE)) %>% 
  ungroup()

# A tibble: 51 × 4
   lat_grid  basin_AIP data_source dcant_mean
   <fct>     <chr>     <chr>            <dbl>
 1 (-40,-30] Atlantic  mod              11.3 
 2 (-40,-30] Atlantic  mod_truth        10.1 
 3 (-40,-30] Atlantic  obs              15.1 
 4 (-40,-30] Indian    mod              13.3 
 5 (-40,-30] Indian    mod_truth        12.6 
 6 (-40,-30] Indian    obs              13.8 
 7 (-40,-30] Pacific   mod              10.5 
 8 (-40,-30] Pacific   mod_truth         9.97
 9 (-40,-30] Pacific   obs              12.8 
10 (-30,-10] Atlantic  mod               7.55
# … with 41 more rows

dcant_inv_all_lat_mean %>%
  filter(period != "1800 - 1994") %>% 
  mutate(lat_grid = cut(lat_grid, c(-90,0,90))) %>% 
  group_by(lat_grid, basin_AIP, period, data_source) %>% 
  summarise(dcant_mean = mean(dcant_mean, na_rm = TRUE)) %>% 
  ungroup()

# A tibble: 54 × 5
   lat_grid basin_AIP period      data_source dcant_mean
   <fct>    <chr>     <chr>       <chr>            <dbl>
 1 (-90,0]  Atlantic  1994 - 2004 mod               4.19
 2 (-90,0]  Atlantic  1994 - 2004 mod_truth         4.06
 3 (-90,0]  Atlantic  1994 - 2004 obs               6.68
 4 (-90,0]  Atlantic  1994 - 2014 mod               9.50
 5 (-90,0]  Atlantic  1994 - 2014 mod_truth         8.72
 6 (-90,0]  Atlantic  1994 - 2014 obs              14.4 
 7 (-90,0]  Atlantic  2004 - 2014 mod               5.35
 8 (-90,0]  Atlantic  2004 - 2014 mod_truth         4.66
 9 (-90,0]  Atlantic  2004 - 2014 obs               7.77
10 (-90,0]  Indian    1994 - 2004 mod               5.77
# … with 44 more rows

dcant_inv_all_lat_mean %>%
  filter(period %in%two_decades,
         data_source == "obs") %>% 
  mutate(lat_grid = cut(lat_grid, c(-50,-20,20,50))) %>% 
  group_by(lat_grid, basin_AIP, period, data_source) %>% 
  summarise(dcant_mean = mean(dcant_mean, na_rm = TRUE)) %>% 
  ungroup() %>% 
  filter(data_source == "obs") %>% 
  arrange(basin_AIP)

# A tibble: 24 × 5
   lat_grid  basin_AIP period      data_source dcant_mean
   <fct>     <chr>     <chr>       <chr>            <dbl>
 1 (-50,-20] Atlantic  1994 - 2004 obs               8.55
 2 (-50,-20] Atlantic  2004 - 2014 obs              11.4 
 3 (-20,20]  Atlantic  1994 - 2004 obs               5.23
 4 (-20,20]  Atlantic  2004 - 2014 obs               8.50
 5 (20,50]   Atlantic  1994 - 2004 obs              12.0 
 6 (20,50]   Atlantic  2004 - 2014 obs               8.07
 7 <NA>      Atlantic  1994 - 2004 obs               7.39
 8 <NA>      Atlantic  2004 - 2014 obs               4.07
 9 (-50,-20] Indian    1994 - 2004 obs              10.8 
10 (-50,-20] Indian    2004 - 2014 obs               8.43
# … with 14 more rows
…
Date

6d5aa43

jens-daniel-mueller

2023-01-17

basinmask_all <- basinmask_all %>%
  filter(MLR_basins != "SO_2")

basinmask_all %>% distinct(MLR_basins, basin)

# A tibble: 23 × 2
   basin        MLR_basins
   <chr>        <chr>     
 1 global       1         
 2 Indo-Pacific 2         
 3 Atlantic     2         
 4 S_Pacific    5         
 5 S_Atlantic   5         
 6 Indian       5         
 7 N_Atlantic   5         
 8 N_Pacific    5         
 9 S_Pacific    5+SO      
10 S_Atlantic   5+SO      
# … with 13 more rows
…
